Sample	Flag_CK2_Cl2,N	Flag_CK2_Cl1,N	Flag_WT_Cl2,N	Flag_WT_Cl1,N	H3K56ac_CK2_Cl2,N	H3K56ac_CK2_Cl1,N	H3K56ac_WT_Cl2,N	H3K56ac_WT_Cl1,N	Rnap2_Ck2_Cl1,N	Rnap2_Ck2_Cl2,N	Rnap2_Wt_Cl1,N	Rnap2_Wt_Cl2,N
Flag_CK2_Cl2	2	0	0	0	0	0	0	0	0	0	0	0
Flag_CK2_Cl1	0	2	0	0	0	0	0	0	0	0	0	0
Flag_WT_Cl2	0	0	2	0	0	0	0	0	0	0	0	0
Flag_WT_Cl1	0	0	0	2	0	0	0	0	0	0	0	0
H3K56ac_CK2_Cl2	0	0	0	0	2	0	0	0	0	0	0	0
H3K56ac_CK2_Cl1	0	0	0	0	0	2	0	0	0	0	0	0
H3K56ac_WT_Cl2	0	0	0	0	0	0	2	0	0	0	0	0
H3K56ac_WT_Cl1	0	0	0	0	0	0	0	2	0	0	0	0
Rnap2_Ck2_Cl1	0	0	0	0	0	0	0	0	2	0	0	0
Rnap2_Ck2_Cl2	0	0	0	0	0	0	0	0	0	2	0	0
Rnap2_Wt_Cl1	0	0	0	0	0	0	0	0	0	0	2	0
Rnap2_Wt_Cl2	0	0	0	0	0	0	0	0	0	0	0	2
